id,"migration",batch
1,"2014_10_12_000000_create_users_table",1
2,"2014_10_12_100000_create_password_resets_table",1
3,"2019_03_31_155205_create_advertises_table",1
4,"2019_03_31_160113_create_events_table",1
5,"2019_03_31_160921_create_vendors_table",1
6,"2019_03_31_161921_create_offers_table",1
7,"2019_03_31_162105_create_places_table",1
8,"2019_03_31_162515_create_prayers_table",1
9,"2019_04_24_143914_create_categories_table",1
10,"2019_05_20_212034_create_admins_table",1
11,"2019_05_20_212123_create_roles_table",1
12,"2019_05_20_212252_create_admin_roles_table",1
13,"2019_06_12_083756_create_prayer_categories_table",1
14,"2019_06_12_083925_create_prayer_sub_categories_table",1
15,"2019_06_23_171326_create_prayer_names_table",1
16,"2019_07_21_142235_create_permissions_table",1
17,"2019_09_22_080734_create_countries_table",1
18,"2019_10_07_074613_create_cities_table",1
